[gd_scene load_steps=3 format=3 uid="uid://t1yt0gpitn5o"]

[ext_resource type="Script" path="res://paddle.gd" id="1_k028k"]

[sub_resource type="RectangleShape2D" id="RectangleShape2D_no6wi"]
size = Vector2(24, 144)

[node name="Paddle" type="CharacterBody2D"]
position = Vector2(40, 448)
script = ExtResource("1_k028k")
metadata/_edit_group_ = true

[node name="CollisionShape2D" type="CollisionShape2D" parent="."]
position = Vector2(4, 0)
shape = SubResource("RectangleShape2D_no6wi")

[node name="ColorRect" type="ColorRect" parent="."]
offset_left = -8.0
offset_top = -72.0
offset_right = 16.0
offset_bottom = 72.0
color = Color(0, 0, 0, 1)
